EESchema Schematic File Version 4
LIBS:teensy_v1-cache
EELAYER 26 0
EELAYER END
$Descr A3 16535 11693
encoding utf-8
Sheet 1 1
Title "Experiment board Teensy GPIB, CAN and Serial"
Date "2019-01-02"
Rev "0"
Comp ""
Comment1 ""
Comment2 ""
Comment3 ""
Comment4 ""
$EndDescr
$Comp
L sm4rpq:Microribbon_24 J1
U 1 1 5C538C52
P 10150 2700
F 0 "J1" H 10150 3565 50  0000 C CNN
F 1 "Microribbon_24" H 10150 3474 50  0000 C CNN
F 2 "sm4rpq:Norcomp_Microribbon_24" H 10150 2750 50  0001 C CNN
F 3 "" H 10150 2750 50  0001 C CNN
	1    10150 2700
	1    0    0    -1  
$EndComp
$Comp
L sm4rpq:SN75161BN U3
U 1 1 5C538CC8
P 7750 4550
F 0 "U3" H 8000 5350 50  0000 C CNN
F 1 "SN75161BN" H 8050 3750 50  0000 C CNN
F 2 "Package_DIP:DIP-20_W7.62mm_Socket_LongPads" H 7750 4550 50  0001 C CNN
F 3 "" H 7750 4550 50  0001 C CNN
	1    7750 4550
	1    0    0    -1  
$EndComp
$Comp
L sm4rpq:SN75160BN U2
U 1 1 5C538D8F
P 7750 2100
F 0 "U2" H 7950 2850 50  0000 C CNN
F 1 "SN75160BN" H 8000 1300 50  0000 C CNN
F 2 "Package_DIP:DIP-20_W7.62mm_Socket_LongPads" H 7850 2150 50  0001 C CNN
F 3 "" H 7850 2150 50  0001 C CNN
	1    7750 2100
	1    0    0    -1  
$EndComp
Wire Wire Line
	9200 1900 9200 2200
Wire Wire Line
	9200 2200 9750 2200
Wire Wire Line
	9100 2000 9100 2300
Wire Wire Line
	9100 2300 9750 2300
Wire Wire Line
	9000 2100 9000 2400
Wire Wire Line
	9000 2400 9750 2400
Wire Wire Line
	8900 2200 8900 2500
Wire Wire Line
	8900 2500 9750 2500
Wire Wire Line
	8250 1900 9200 1900
Wire Wire Line
	8250 2000 9100 2000
Wire Wire Line
	8250 2100 9000 2100
Wire Wire Line
	8250 2200 8900 2200
Wire Wire Line
	8250 2300 8400 2300
Wire Wire Line
	8400 2300 8400 1700
Wire Wire Line
	8400 1700 10700 1700
Wire Wire Line
	10700 1700 10700 2200
Wire Wire Line
	10700 2200 10550 2200
Wire Wire Line
	8250 2400 8500 2400
Wire Wire Line
	8500 2400 8500 1600
Wire Wire Line
	8500 1600 10800 1600
Wire Wire Line
	10800 1600 10800 2300
Wire Wire Line
	10800 2300 10550 2300
Wire Wire Line
	8250 2500 8600 2500
Wire Wire Line
	8600 2500 8600 1500
Wire Wire Line
	8600 1500 10900 1500
Wire Wire Line
	10900 1500 10900 2400
Wire Wire Line
	10900 2400 10550 2400
Wire Wire Line
	8250 2600 8700 2600
Wire Wire Line
	8700 2600 8700 1400
Wire Wire Line
	8700 1400 11000 1400
Wire Wire Line
	11000 1400 11000 2500
Wire Wire Line
	11000 2500 10550 2500
Wire Wire Line
	11000 4350 11000 2600
Wire Wire Line
	11000 2600 10550 2600
Wire Wire Line
	8850 4850 8850 2600
Wire Wire Line
	8850 2600 9750 2600
Wire Wire Line
	8950 4750 8950 2700
Wire Wire Line
	8950 2700 9750 2700
Wire Wire Line
	9050 4650 9050 2800
Wire Wire Line
	9050 2800 9750 2800
Wire Wire Line
	9150 4550 9150 2900
Wire Wire Line
	9150 2900 9750 2900
Wire Wire Line
	9250 4450 9250 3000
Wire Wire Line
	9250 3000 9750 3000
Wire Wire Line
	9350 5050 9350 3100
Wire Wire Line
	9350 3100 9750 3100
Wire Wire Line
	9450 4950 9450 3200
Wire Wire Line
	9450 3200 9750 3200
Wire Wire Line
	9750 3300 9650 3300
Wire Wire Line
	9650 3300 9650 3650
Wire Wire Line
	10550 3300 10650 3300
Wire Wire Line
	10650 3300 10650 3650
Wire Wire Line
	10550 3200 10650 3200
Wire Wire Line
	10650 3200 10650 3300
Connection ~ 10650 3300
Wire Wire Line
	10550 3100 10650 3100
Wire Wire Line
	10650 3100 10650 3200
Connection ~ 10650 3200
Wire Wire Line
	10550 3000 10650 3000
Wire Wire Line
	10650 3000 10650 3100
Connection ~ 10650 3100
Wire Wire Line
	10550 2900 10650 2900
Wire Wire Line
	10650 2900 10650 3000
Connection ~ 10650 3000
Wire Wire Line
	10550 2800 10650 2800
Wire Wire Line
	10650 2800 10650 2900
Connection ~ 10650 2900
Wire Wire Line
	10550 2700 10650 2700
Wire Wire Line
	10650 2700 10650 2800
Connection ~ 10650 2800
$Comp
L power:GND #PWR0101
U 1 1 5C54779F
P 10650 3650
F 0 "#PWR0101" H 10650 3400 50  0001 C CNN
F 1 "GND" H 10655 3477 50  0000 C CNN
F 2 "" H 10650 3650 50  0001 C CNN
F 3 "" H 10650 3650 50  0001 C CNN
	1    10650 3650
	1    0    0    -1  
$EndComp
$Comp
L power:GND #PWR0102
U 1 1 5C5477C9
P 9650 3650
F 0 "#PWR0102" H 9650 3400 50  0001 C CNN
F 1 "GND" H 9655 3477 50  0000 C CNN
F 2 "" H 9650 3650 50  0001 C CNN
F 3 "" H 9650 3650 50  0001 C CNN
	1    9650 3650
	1    0    0    -1  
$EndComp
$Comp
L power:GND #PWR0105
U 1 1 5C618D74
P 7750 5450
F 0 "#PWR0105" H 7750 5200 50  0001 C CNN
F 1 "GND" H 7755 5277 50  0000 C CNN
F 2 "" H 7750 5450 50  0001 C CNN
F 3 "" H 7750 5450 50  0001 C CNN
	1    7750 5450
	1    0    0    -1  
$EndComp
$Comp
L power:GND #PWR0106
U 1 1 5C618D9E
P 7750 3000
F 0 "#PWR0106" H 7750 2750 50  0001 C CNN
F 1 "GND" H 7755 2827 50  0000 C CNN
F 2 "" H 7750 3000 50  0001 C CNN
F 3 "" H 7750 3000 50  0001 C CNN
	1    7750 3000
	1    0    0    -1  
$EndComp
$Comp
L power:VCC #PWR0107
U 1 1 5C618DDD
P 7750 3650
F 0 "#PWR0107" H 7750 3500 50  0001 C CNN
F 1 "VCC" H 7767 3823 50  0000 C CNN
F 2 "" H 7750 3650 50  0001 C CNN
F 3 "" H 7750 3650 50  0001 C CNN
	1    7750 3650
	1    0    0    -1  
$EndComp
$Comp
L power:VCC #PWR0108
U 1 1 5C618E1C
P 7750 1200
F 0 "#PWR0108" H 7750 1050 50  0001 C CNN
F 1 "VCC" H 7767 1373 50  0000 C CNN
F 2 "" H 7750 1200 50  0001 C CNN
F 3 "" H 7750 1200 50  0001 C CNN
	1    7750 1200
	1    0    0    -1  
$EndComp
$Comp
L power:VCC #PWR0109
U 1 1 5C618E46
P 4700 1550
F 0 "#PWR0109" H 4700 1400 50  0001 C CNN
F 1 "VCC" H 4717 1723 50  0000 C CNN
F 2 "" H 4700 1550 50  0001 C CNN
F 3 "" H 4700 1550 50  0001 C CNN
	1    4700 1550
	1    0    0    -1  
$EndComp
$Comp
L sm4rpq:Teensy3.2_OuterPads U1
U 1 1 5C2AEC06
P 3400 2450
F 0 "U1" H 3450 3365 50  0000 C CNN
F 1 "Teensy3.2_OuterPads" H 3450 3274 50  0000 C CNN
F 2 "sm4rpq:Teensy30_31_32_LC_outerpads" H 3250 1850 50  0001 C CNN
F 3 "" H 3250 1850 50  0001 C CNN
	1    3400 2450
	1    0    0    -1  
$EndComp
Wire Wire Line
	4600 1800 4700 1800
Wire Wire Line
	4700 1800 4700 1600
Wire Wire Line
	8250 4350 11000 4350
Wire Wire Line
	8250 4450 9250 4450
Wire Wire Line
	8250 4550 9150 4550
Wire Wire Line
	8250 4650 9050 4650
Wire Wire Line
	8250 4750 8950 4750
Wire Wire Line
	8250 4850 8850 4850
Wire Wire Line
	8250 4950 9450 4950
Wire Wire Line
	8250 5050 9350 5050
Wire Wire Line
	2300 1800 1150 1800
$Comp
L power:GND #PWR0103
U 1 1 5C308C1C
P 1150 1900
F 0 "#PWR0103" H 1150 1650 50  0001 C CNN
F 1 "GND" H 1155 1727 50  0000 C CNN
F 2 "" H 1150 1900 50  0001 C CNN
F 3 "" H 1150 1900 50  0001 C CNN
	1    1150 1900
	1    0    0    -1  
$EndComp
Entry Wire Line
	6000 1400 6100 1500
Entry Wire Line
	6000 1500 6100 1600
Entry Wire Line
	6000 1800 6100 1900
Entry Wire Line
	6000 1900 6100 2000
Entry Wire Line
	6000 2000 6100 2100
Entry Wire Line
	6000 2100 6100 2200
Entry Wire Line
	6000 2200 6100 2300
Entry Wire Line
	6000 2300 6100 2400
Entry Wire Line
	6000 2400 6100 2500
Entry Wire Line
	6000 2500 6100 2600
Entry Wire Line
	6000 3850 6100 3950
Entry Wire Line
	6000 3950 6100 4050
Entry Wire Line
	6000 4250 6100 4350
Entry Wire Line
	6000 4350 6100 4450
Entry Wire Line
	6000 4450 6100 4550
Entry Wire Line
	6000 4550 6100 4650
Entry Wire Line
	6000 4650 6100 4750
Entry Wire Line
	6000 4750 6100 4850
Entry Wire Line
	6000 4850 6100 4950
Entry Wire Line
	6000 4950 6100 5050
Text Label 6150 1500 0    50   ~ 0
PE
Text Label 6150 1600 0    50   ~ 0
TE
Text Label 6150 2000 0    50   ~ 0
D1
Text Label 6150 2100 0    50   ~ 0
D2
Text Label 6150 2200 0    50   ~ 0
D3
Text Label 6150 2300 0    50   ~ 0
D4
Text Label 6150 2400 0    50   ~ 0
D5
Text Label 6150 2500 0    50   ~ 0
D6
Text Label 6150 2600 0    50   ~ 0
D7
Text Label 6150 3950 0    50   ~ 0
DC
Text Label 6150 4050 0    50   ~ 0
TE
Text Label 6150 4350 0    50   ~ 0
REN
Text Label 6150 4450 0    50   ~ 0
IFC
Text Label 6150 4550 0    50   ~ 0
NDAC
Text Label 6150 4650 0    50   ~ 0
NRFD
Text Label 6150 4750 0    50   ~ 0
DAV
Text Label 6150 4850 0    50   ~ 0
EOI
Text Label 6150 4950 0    50   ~ 0
ATN
Text Label 6150 5050 0    50   ~ 0
SRQ
Text Label 6150 1900 0    50   ~ 0
D0
Entry Wire Line
	1700 2000 1800 2100
Wire Wire Line
	2300 2100 1800 2100
Wire Wire Line
	2300 2600 1800 2600
Wire Wire Line
	2300 2700 1800 2700
Wire Wire Line
	2300 2500 1800 2500
Wire Wire Line
	4600 3100 5000 3100
Wire Wire Line
	4600 2300 5100 2300
Entry Wire Line
	1700 2300 1800 2400
Entry Wire Line
	1700 2400 1800 2500
Entry Wire Line
	1700 2500 1800 2600
Entry Wire Line
	1700 2600 1800 2700
Entry Wire Line
	5100 2300 5200 2200
Entry Wire Line
	5100 3000 5200 2900
Entry Wire Line
	5100 3100 5200 3000
Text Label 1850 2100 0    50   ~ 0
D0
Text Label 4700 3000 0    50   ~ 0
D1
Text Label 1850 2600 0    50   ~ 0
D2
Text Label 1850 2700 0    50   ~ 0
D3
Text Label 1850 2500 0    50   ~ 0
D4
Text Label 4700 2400 0    50   ~ 0
D5
Text Label 4700 2300 0    50   ~ 0
D6
Wire Wire Line
	1800 2400 2300 2400
Text Label 1850 2400 0    50   ~ 0
D7
Wire Wire Line
	4600 2600 5100 2600
Wire Wire Line
	4600 2200 5100 2200
Wire Wire Line
	4600 2100 5100 2100
Wire Wire Line
	1800 2800 2300 2800
Wire Wire Line
	2300 2900 1800 2900
Wire Wire Line
	2300 3000 1800 3000
Wire Wire Line
	2300 3100 1800 3100
Entry Wire Line
	5100 2400 5200 2300
Text Label 4900 3100 0    50   ~ 0
TE
Entry Wire Line
	5100 2100 5200 2000
Entry Wire Line
	5100 2200 5200 2100
Entry Wire Line
	5100 2600 5200 2500
Entry Wire Line
	1700 2700 1800 2800
Entry Wire Line
	1700 2800 1800 2900
Entry Wire Line
	1700 2900 1800 3000
Entry Wire Line
	1700 3000 1800 3100
Text Label 1900 2800 0    50   ~ 0
REN
Text Label 1900 2900 0    50   ~ 0
IFC
Text Label 1900 3000 0    50   ~ 0
NDAC
Text Label 1900 3100 0    50   ~ 0
NRFD
Text Label 4750 2900 0    50   ~ 0
DAV
Text Label 4750 2200 0    50   ~ 0
EOI
Text Label 4750 2100 0    50   ~ 0
ATN
Wire Wire Line
	4600 2700 5100 2700
Wire Wire Line
	4600 2800 5100 2800
Wire Wire Line
	4600 2900 5100 2900
Entry Wire Line
	5100 2700 5200 2600
Entry Wire Line
	5100 2800 5200 2700
Entry Wire Line
	5100 2900 5200 2800
Text Label 4750 2800 0    50   ~ 0
SRQ
Text Label 4800 2700 0    50   ~ 0
PE
Text Label 4800 2600 0    50   ~ 0
DC
$Comp
L power:VCC #PWR01
U 1 1 5C39887C
P 3350 10350
F 0 "#PWR01" H 3350 10200 50  0001 C CNN
F 1 "VCC" H 3367 10523 50  0000 C CNN
F 2 "" H 3350 10350 50  0001 C CNN
F 3 "" H 3350 10350 50  0001 C CNN
	1    3350 10350
	1    0    0    -1  
$EndComp
$Comp
L power:GND #PWR02
U 1 1 5C3988BB
P 3350 10750
F 0 "#PWR02" H 3350 10500 50  0001 C CNN
F 1 "GND" H 3355 10577 50  0000 C CNN
F 2 "" H 3350 10750 50  0001 C CNN
F 3 "" H 3350 10750 50  0001 C CNN
	1    3350 10750
	1    0    0    -1  
$EndComp
$Comp
L Device:C C1
U 1 1 5C39890C
P 3550 10550
F 0 "C1" H 3665 10596 50  0000 L CNN
F 1 "100n" H 3665 10505 50  0000 L CNN
F 2 "Capacitor_THT:C_Rect_L7.0mm_W2.5mm_P5.00mm" H 3588 10400 50  0001 C CNN
F 3 "~" H 3550 10550 50  0001 C CNN
	1    3550 10550
	1    0    0    -1  
$EndComp
$Comp
L Device:C C2
U 1 1 5C39898C
P 3900 10550
F 0 "C2" H 4015 10596 50  0000 L CNN
F 1 "100n" H 4015 10505 50  0000 L CNN
F 2 "Capacitor_THT:C_Rect_L7.0mm_W2.5mm_P5.00mm" H 3938 10400 50  0001 C CNN
F 3 "~" H 3900 10550 50  0001 C CNN
	1    3900 10550
	1    0    0    -1  
$EndComp
Wire Wire Line
	3350 10350 3350 10400
Wire Wire Line
	3350 10400 3550 10400
Wire Wire Line
	3550 10400 3900 10400
Connection ~ 3550 10400
Wire Wire Line
	3900 10700 3550 10700
Wire Wire Line
	3550 10700 3350 10700
Wire Wire Line
	3350 10700 3350 10750
Connection ~ 3550 10700
$Comp
L power:PWR_FLAG #FLG01
U 1 1 5C3AF0B1
P 3900 10350
F 0 "#FLG01" H 3900 10425 50  0001 C CNN
F 1 "PWR_FLAG" H 3900 10524 50  0000 C CNN
F 2 "" H 3900 10350 50  0001 C CNN
F 3 "~" H 3900 10350 50  0001 C CNN
	1    3900 10350
	1    0    0    -1  
$EndComp
$Comp
L power:PWR_FLAG #FLG02
U 1 1 5C3AF0CF
P 3900 10750
F 0 "#FLG02" H 3900 10825 50  0001 C CNN
F 1 "PWR_FLAG" H 3900 10923 50  0000 C CNN
F 2 "" H 3900 10750 50  0001 C CNN
F 3 "~" H 3900 10750 50  0001 C CNN
	1    3900 10750
	-1   0    0    1   
$EndComp
Wire Wire Line
	3900 10750 3900 10700
Connection ~ 3900 10700
Wire Wire Line
	3900 10400 3900 10350
Connection ~ 3900 10400
$Comp
L Device:R_Network09 RN1
U 1 1 5C2B72B7
P 6750 900
F 0 "RN1" H 7230 946 50  0000 L CNN
F 1 "9x10k" H 7230 855 50  0000 L CNN
F 2 "Resistor_THT:R_Array_SIP10" V 7325 900 50  0001 C CNN
F 3 "http://www.vishay.com/docs/31509/csc.pdf" H 6750 900 50  0001 C CNN
	1    6750 900 
	1    0    0    -1  
$EndComp
Wire Wire Line
	6100 1600 7250 1600
Wire Wire Line
	6100 3950 6350 3950
Wire Wire Line
	6100 4350 6450 4350
Wire Wire Line
	6100 4450 6550 4450
Wire Wire Line
	6100 4750 6850 4750
Wire Wire Line
	6100 4850 6950 4850
Wire Wire Line
	6100 4950 7050 4950
$Comp
L Device:R_Network09 RN2
U 1 1 5C3AF77B
P 6750 3200
F 0 "RN2" H 7230 3246 50  0000 L CNN
F 1 "9x10k" H 7230 3155 50  0000 L CNN
F 2 "Resistor_THT:R_Array_SIP10" V 7325 3200 50  0001 C CNN
F 3 "http://www.vishay.com/docs/31509/csc.pdf" H 6750 3200 50  0001 C CNN
	1    6750 3200
	1    0    0    -1  
$EndComp
Entry Bus Bus
	5200 1150 5300 1050
$Comp
L Device:R R1
U 1 1 5C3CE5C6
P 5000 1800
F 0 "R1" H 5070 1846 50  0000 L CNN
F 1 "10k" H 5070 1755 50  0000 L CNN
F 2 "Resistor_THT:R_Axial_DIN0207_L6.3mm_D2.5mm_P10.16mm_Horizontal" V 4930 1800 50  0001 C CNN
F 3 "~" H 5000 1800 50  0001 C CNN
	1    5000 1800
	1    0    0    -1  
$EndComp
Wire Wire Line
	5000 1650 5000 1600
Wire Wire Line
	5000 1600 4700 1600
Connection ~ 4700 1600
Wire Wire Line
	4700 1600 4700 1550
NoConn ~ 4600 1900
NoConn ~ 4600 2000
NoConn ~ 3200 3400
NoConn ~ 3300 3400
NoConn ~ 3500 3400
$Comp
L power:VCC #PWR0110
U 1 1 5C43726D
P 6350 700
F 0 "#PWR0110" H 6350 550 50  0001 C CNN
F 1 "VCC" H 6367 873 50  0000 C CNN
F 2 "" H 6350 700 50  0001 C CNN
F 3 "" H 6350 700 50  0001 C CNN
	1    6350 700 
	1    0    0    -1  
$EndComp
Wire Wire Line
	6100 1900 6450 1900
Wire Wire Line
	6100 2000 6550 2000
Wire Wire Line
	6100 2100 6650 2100
Wire Wire Line
	6100 2200 6750 2200
Wire Wire Line
	6100 2300 6850 2300
Wire Wire Line
	6100 2400 6950 2400
Wire Wire Line
	6100 2500 7050 2500
Wire Wire Line
	6100 2600 7150 2600
Wire Wire Line
	6100 1500 6350 1500
Wire Wire Line
	6350 1100 6350 1500
Connection ~ 6350 1500
Wire Wire Line
	6350 1500 7250 1500
Wire Wire Line
	6450 1100 6450 1900
Connection ~ 6450 1900
Wire Wire Line
	6450 1900 7250 1900
Wire Wire Line
	6550 1100 6550 2000
Connection ~ 6550 2000
Wire Wire Line
	6550 2000 7250 2000
Wire Wire Line
	6650 1100 6650 2100
Connection ~ 6650 2100
Wire Wire Line
	6650 2100 7250 2100
Wire Wire Line
	6750 1100 6750 2200
Connection ~ 6750 2200
Wire Wire Line
	6750 2200 7250 2200
Wire Wire Line
	6850 1100 6850 2300
Connection ~ 6850 2300
Wire Wire Line
	6850 2300 7250 2300
Wire Wire Line
	6950 1100 6950 2400
Connection ~ 6950 2400
Wire Wire Line
	6950 2400 7250 2400
Wire Wire Line
	7050 1100 7050 2500
Connection ~ 7050 2500
Wire Wire Line
	7050 2500 7250 2500
Wire Wire Line
	7150 1100 7150 2600
Connection ~ 7150 2600
Wire Wire Line
	7150 2600 7250 2600
$Comp
L power:VCC #PWR0111
U 1 1 5C47E8AA
P 6350 3000
F 0 "#PWR0111" H 6350 2850 50  0001 C CNN
F 1 "VCC" H 6367 3173 50  0000 C CNN
F 2 "" H 6350 3000 50  0001 C CNN
F 3 "" H 6350 3000 50  0001 C CNN
	1    6350 3000
	1    0    0    -1  
$EndComp
Wire Wire Line
	6350 3400 6350 3950
Connection ~ 6350 3950
Wire Wire Line
	6350 3950 7250 3950
Wire Wire Line
	6450 3400 6450 4350
Connection ~ 6450 4350
Wire Wire Line
	6450 4350 7250 4350
Wire Wire Line
	6550 3400 6550 4450
Connection ~ 6550 4450
Wire Wire Line
	6550 4450 7250 4450
Wire Wire Line
	6650 3400 6650 4550
Wire Wire Line
	6100 4550 6650 4550
Connection ~ 6650 4550
Wire Wire Line
	6650 4550 7250 4550
Wire Wire Line
	6750 3400 6750 4650
Connection ~ 6750 4650
Wire Wire Line
	6750 4650 7250 4650
Wire Wire Line
	6850 3400 6850 4750
Connection ~ 6850 4750
Wire Wire Line
	6850 4750 7250 4750
Wire Wire Line
	6950 3400 6950 4850
Connection ~ 6950 4850
Wire Wire Line
	6950 4850 7250 4850
Wire Wire Line
	7050 3400 7050 4950
Connection ~ 7050 4950
Wire Wire Line
	7050 4950 7250 4950
Wire Wire Line
	7150 3400 7150 5050
Connection ~ 7150 5050
Wire Wire Line
	7150 5050 7250 5050
Wire Wire Line
	6100 4050 6350 4050
Wire Wire Line
	6350 4050 6350 5250
Connection ~ 6350 4050
Wire Wire Line
	6350 4050 7250 4050
$Comp
L Device:LED_ALT D4
U 1 1 5C550DCC
P 7050 7100
F 0 "D4" V 6995 7179 50  0000 L CNN
F 1 "LED_ALT" V 7086 7179 50  0000 L CNN
F 2 "LED_THT:LED_D5.0mm" H 7050 7100 50  0001 C CNN
F 3 "~" H 7050 7100 50  0001 C CNN
	1    7050 7100
	0    1    1    0   
$EndComp
$Comp
L Device:LED_ALT D3
U 1 1 5C550E58
P 6500 7100
F 0 "D3" V 6445 7179 50  0000 L CNN
F 1 "LED_ALT" V 6536 7179 50  0000 L CNN
F 2 "LED_THT:LED_D5.0mm" H 6500 7100 50  0001 C CNN
F 3 "~" H 6500 7100 50  0001 C CNN
	1    6500 7100
	0    1    1    0   
$EndComp
$Comp
L Device:LED_ALT D2
U 1 1 5C550E80
P 5450 7100
F 0 "D2" V 5395 7179 50  0000 L CNN
F 1 "LED_ALT" V 5486 7179 50  0000 L CNN
F 2 "LED_THT:LED_D5.0mm" H 5450 7100 50  0001 C CNN
F 3 "~" H 5450 7100 50  0001 C CNN
	1    5450 7100
	0    1    1    0   
$EndComp
$Comp
L Device:LED_ALT D1
U 1 1 5C550EB2
P 5950 7100
F 0 "D1" V 5895 7179 50  0000 L CNN
F 1 "LED_ALT" V 5986 7179 50  0000 L CNN
F 2 "LED_THT:LED_D5.0mm" H 5950 7100 50  0001 C CNN
F 3 "~" H 5950 7100 50  0001 C CNN
	1    5950 7100
	0    1    1    0   
$EndComp
$Comp
L power:VCC #PWR03
U 1 1 5C5E5DA8
P 4250 7750
F 0 "#PWR03" H 4250 7600 50  0001 C CNN
F 1 "VCC" H 4267 7923 50  0000 C CNN
F 2 "" H 4250 7750 50  0001 C CNN
F 3 "" H 4250 7750 50  0001 C CNN
	1    4250 7750
	1    0    0    -1  
$EndComp
Wire Wire Line
	4600 7900 4250 7900
Wire Wire Line
	4250 7900 4250 7750
Wire Wire Line
	4600 2400 5100 2400
Wire Wire Line
	5000 1950 5000 3100
Connection ~ 5000 3100
Wire Wire Line
	5000 3100 5100 3100
$Comp
L Interface_CAN_LIN:MCP2551-I-P U5
U 1 1 5C326B07
P 2000 4550
F 0 "U5" H 2350 4900 50  0000 C CNN
F 1 "MCP2551-I-P" H 2400 4200 50  0000 C CNN
F 2 "Package_DIP:DIP-8_W7.62mm_Socket_LongPads" H 2000 4050 50  0001 C CIN
F 3 "http://ww1.microchip.com/downloads/en/devicedoc/21667d.pdf" H 2000 4550 50  0001 C CNN
	1    2000 4550
	1    0    0    -1  
$EndComp
Wire Wire Line
	1150 1800 1150 1900
Wire Wire Line
	2300 2200 850  2200
Wire Wire Line
	850  2200 850  4350
Wire Wire Line
	850  4350 1500 4350
Wire Wire Line
	1000 2300 1000 4450
Wire Wire Line
	1000 4450 1500 4450
$Comp
L power:VCC #PWR05
U 1 1 5C36B475
P 2000 4000
F 0 "#PWR05" H 2000 3850 50  0001 C CNN
F 1 "VCC" H 2017 4173 50  0000 C CNN
F 2 "" H 2000 4000 50  0001 C CNN
F 3 "" H 2000 4000 50  0001 C CNN
	1    2000 4000
	1    0    0    -1  
$EndComp
Wire Wire Line
	2000 4150 2000 4000
$Comp
L power:GND #PWR06
U 1 1 5C37A10B
P 2000 5100
F 0 "#PWR06" H 2000 4850 50  0001 C CNN
F 1 "GND" H 2005 4927 50  0000 C CNN
F 2 "" H 2000 5100 50  0001 C CNN
F 3 "" H 2000 5100 50  0001 C CNN
	1    2000 5100
	1    0    0    -1  
$EndComp
Wire Wire Line
	2000 4950 2000 5050
NoConn ~ 1500 4650
$Comp
L Device:R R3
U 1 1 5C397B7A
P 3100 4200
F 0 "R3" V 2893 4200 50  0000 C CNN
F 1 "120" V 2984 4200 50  0000 C CNN
F 2 "Resistor_THT:R_Axial_DIN0207_L6.3mm_D2.5mm_P10.16mm_Horizontal" V 3030 4200 50  0001 C CNN
F 3 "~" H 3100 4200 50  0001 C CNN
	1    3100 4200
	0    1    1    0   
$EndComp
$Comp
L Connector:Conn_01x02_Male J2
U 1 1 5C397CCB
P 3450 4000
F 0 "J2" V 3510 4040 50  0000 L CNN
F 1 "Conn_01x02_Male" V 3300 3850 50  0000 L CNN
F 2 "Connector_PinHeader_2.54mm:PinHeader_1x02_P2.54mm_Vertical" H 3450 4000 50  0001 C CNN
F 3 "~" H 3450 4000 50  0001 C CNN
	1    3450 4000
	0    1    1    0   
$EndComp
Wire Wire Line
	2500 4450 2850 4450
Wire Wire Line
	2850 4450 2850 4200
Wire Wire Line
	2850 4200 2950 4200
Wire Wire Line
	3250 4200 3350 4200
Wire Wire Line
	3450 4200 3450 4600
Wire Wire Line
	3450 4650 2500 4650
$Comp
L Device:R R2
U 1 1 5C3C627A
P 1200 4900
F 0 "R2" H 1270 4946 50  0000 L CNN
F 1 "0" H 1270 4855 50  0000 L CNN
F 2 "Resistor_THT:R_Axial_DIN0207_L6.3mm_D2.5mm_P10.16mm_Horizontal" V 1130 4900 50  0001 C CNN
F 3 "~" H 1200 4900 50  0001 C CNN
	1    1200 4900
	1    0    0    -1  
$EndComp
Wire Wire Line
	1500 4750 1200 4750
Wire Wire Line
	1200 5050 2000 5050
Connection ~ 2000 5050
Wire Wire Line
	2000 5050 2000 5100
$Comp
L Connector:Screw_Terminal_01x04 J3
U 1 1 5C3E6751
P 4500 4600
F 0 "J3" H 4580 4592 50  0000 L CNN
F 1 "Screw_Terminal_01x04" H 4580 4501 50  0000 L CNN
F 2 "TerminalBlock_MetzConnect:TerminalBlock_MetzConnect_Type101_RT01604HBWC_1x04_P5.08mm_Horizontal" H 4500 4600 50  0001 C CNN
F 3 "~" H 4500 4600 50  0001 C CNN
	1    4500 4600
	1    0    0    1   
$EndComp
$Comp
L power:GND #PWR07
U 1 1 5C3E690B
P 4200 4900
F 0 "#PWR07" H 4200 4650 50  0001 C CNN
F 1 "GND" H 4205 4727 50  0000 C CNN
F 2 "" H 4200 4900 50  0001 C CNN
F 3 "" H 4200 4900 50  0001 C CNN
	1    4200 4900
	1    0    0    -1  
$EndComp
Wire Wire Line
	4300 4700 4200 4700
Wire Wire Line
	4200 4700 4200 4900
Wire Wire Line
	4300 4600 3450 4600
Connection ~ 3450 4600
Wire Wire Line
	3450 4600 3450 4650
Wire Wire Line
	4300 4500 3600 4500
Wire Wire Line
	3600 4500 3600 4450
Wire Wire Line
	3600 4450 2850 4450
Connection ~ 2850 4450
$Comp
L Mechanical:MountingHole H1
U 1 1 5C42A594
P 14600 9650
F 0 "H1" H 14700 9696 50  0000 L CNN
F 1 "MountingHole" H 14700 9605 50  0000 L CNN
F 2 "MountingHole:MountingHole_3.2mm_M3" H 14600 9650 50  0001 C CNN
F 3 "~" H 14600 9650 50  0001 C CNN
	1    14600 9650
	1    0    0    -1  
$EndComp
$Comp
L Mechanical:MountingHole H2
U 1 1 5C42A8B7
P 14950 9650
F 0 "H2" H 15050 9696 50  0000 L CNN
F 1 "MountingHole" H 15050 9605 50  0000 L CNN
F 2 "MountingHole:MountingHole_3.2mm_M3" H 14950 9650 50  0001 C CNN
F 3 "~" H 14950 9650 50  0001 C CNN
	1    14950 9650
	1    0    0    -1  
$EndComp
$Comp
L Mechanical:MountingHole H3
U 1 1 5C42A8FD
P 15250 9650
F 0 "H3" H 15350 9696 50  0000 L CNN
F 1 "MountingHole" H 15350 9605 50  0000 L CNN
F 2 "MountingHole:MountingHole_3.2mm_M3" H 15250 9650 50  0001 C CNN
F 3 "~" H 15250 9650 50  0001 C CNN
	1    15250 9650
	1    0    0    -1  
$EndComp
$Comp
L Mechanical:MountingHole H4
U 1 1 5C42A947
P 15550 9650
F 0 "H4" H 15650 9696 50  0000 L CNN
F 1 "MountingHole" H 15650 9605 50  0000 L CNN
F 2 "MountingHole:MountingHole_3.2mm_M3" H 15550 9650 50  0001 C CNN
F 3 "~" H 15550 9650 50  0001 C CNN
	1    15550 9650
	1    0    0    -1  
$EndComp
$Comp
L Regulator_Linear:L78L05_TO92 U6
U 1 1 5C2FF778
P 2500 10400
F 0 "U6" H 2500 10642 50  0000 C CNN
F 1 "L78L05_TO92" H 2500 10551 50  0000 C CNN
F 2 "Package_TO_SOT_THT:TO-92_Wide" H 2500 10625 50  0001 C CIN
F 3 "http://www.st.com/content/ccc/resource/technical/document/datasheet/15/55/e5/aa/23/5b/43/fd/CD00000446.pdf/files/CD00000446.pdf/jcr:content/translations/en.CD00000446.pdf" H 2500 10350 50  0001 C CNN
	1    2500 10400
	1    0    0    -1  
$EndComp
$Comp
L Connector:Conn_01x02_Male J4
U 1 1 5C322725
P 2950 10200
F 0 "J4" V 2900 10150 50  0000 R CNN
F 1 "Conn_01x02_Male" V 2800 10200 50  0000 R CNN
F 2 "Connector_PinHeader_2.54mm:PinHeader_1x02_P2.54mm_Vertical" H 2950 10200 50  0001 C CNN
F 3 "~" H 2950 10200 50  0001 C CNN
	1    2950 10200
	0    -1   1    0   
$EndComp
Wire Wire Line
	2800 10400 2900 10400
Wire Wire Line
	3050 10400 3350 10400
Connection ~ 3350 10400
Wire Wire Line
	2500 10700 2900 10700
Connection ~ 3350 10700
$Comp
L power:+12V #PWR0112
U 1 1 5C369305
P 4250 4300
F 0 "#PWR0112" H 4250 4150 50  0001 C CNN
F 1 "+12V" H 4350 4400 50  0000 C CNN
F 2 "" H 4250 4300 50  0001 C CNN
F 3 "" H 4250 4300 50  0001 C CNN
	1    4250 4300
	1    0    0    -1  
$EndComp
Wire Wire Line
	4300 4400 4250 4400
Wire Wire Line
	4250 4400 4250 4300
$Comp
L power:+12V #PWR0113
U 1 1 5C38DCFD
P 750 10150
F 0 "#PWR0113" H 750 10000 50  0001 C CNN
F 1 "+12V" H 765 10323 50  0000 C CNN
F 2 "" H 750 10150 50  0001 C CNN
F 3 "" H 750 10150 50  0001 C CNN
	1    750  10150
	1    0    0    -1  
$EndComp
$Comp
L power:PWR_FLAG #FLG03
U 1 1 5C38E863
P 4100 4300
F 0 "#FLG03" H 4100 4375 50  0001 C CNN
F 1 "PWR_FLAG" H 4100 4474 50  0000 C CNN
F 2 "" H 4100 4300 50  0001 C CNN
F 3 "~" H 4100 4300 50  0001 C CNN
	1    4100 4300
	1    0    0    -1  
$EndComp
Wire Wire Line
	4250 4400 4100 4400
Wire Wire Line
	4100 4400 4100 4300
Connection ~ 4250 4400
$Comp
L Connector:Conn_01x02_Male J5
U 1 1 5C3A195A
P 950 10100
F 0 "J5" V 900 10050 50  0000 R CNN
F 1 "Conn_01x02_Male" V 800 10050 50  0000 R CNN
F 2 "Connector_PinHeader_2.54mm:PinHeader_1x02_P2.54mm_Vertical" H 950 10100 50  0001 C CNN
F 3 "~" H 950 10100 50  0001 C CNN
	1    950  10100
	0    -1   1    0   
$EndComp
$Comp
L Device:CP C10
U 1 1 5C3B4C96
P 1150 10550
F 0 "C10" H 1268 10596 50  0000 L CNN
F 1 "10u" H 1268 10505 50  0000 L CNN
F 2 "Capacitor_THT:CP_Radial_D7.5mm_P2.50mm" H 1188 10400 50  0001 C CNN
F 3 "~" H 1150 10550 50  0001 C CNN
	1    1150 10550
	1    0    0    -1  
$EndComp
Wire Wire Line
	1050 10400 1050 10300
Wire Wire Line
	1050 10400 1150 10400
Wire Wire Line
	950  10300 950  10400
Wire Wire Line
	950  10400 750  10400
Wire Wire Line
	750  10150 750  10400
Connection ~ 1150 10400
Wire Wire Line
	1150 10400 1700 10400
$Comp
L Device:C C11
U 1 1 5C3EE77E
P 1700 10550
F 0 "C11" H 1815 10596 50  0000 L CNN
F 1 "100n" H 1815 10505 50  0000 L CNN
F 2 "Capacitor_THT:C_Rect_L7.0mm_W2.5mm_P5.00mm" H 1738 10400 50  0001 C CNN
F 3 "~" H 1700 10550 50  0001 C CNN
	1    1700 10550
	1    0    0    -1  
$EndComp
Connection ~ 1700 10400
Wire Wire Line
	1700 10400 1900 10400
$Comp
L Device:C C12
U 1 1 5C3EE814
P 2900 10550
F 0 "C12" H 2750 10450 50  0000 L CNN
F 1 "100n" H 3015 10505 50  0000 L CNN
F 2 "Capacitor_THT:C_Rect_L7.0mm_W2.5mm_P5.00mm" H 2938 10400 50  0001 C CNN
F 3 "~" H 2900 10550 50  0001 C CNN
	1    2900 10550
	1    0    0    -1  
$EndComp
Connection ~ 2900 10400
Wire Wire Line
	2900 10400 2950 10400
Connection ~ 2900 10700
Wire Wire Line
	2900 10700 3350 10700
Wire Wire Line
	2500 10700 2050 10700
Connection ~ 2500 10700
Connection ~ 1700 10700
Wire Wire Line
	1700 10700 1150 10700
$Comp
L Device:C C3
U 1 1 5C4036A5
P 4300 10550
F 0 "C3" H 4415 10596 50  0000 L CNN
F 1 "100n" H 4415 10505 50  0000 L CNN
F 2 "Capacitor_THT:C_Rect_L7.0mm_W2.5mm_P5.00mm" H 4338 10400 50  0001 C CNN
F 3 "~" H 4300 10550 50  0001 C CNN
	1    4300 10550
	1    0    0    -1  
$EndComp
Wire Wire Line
	4300 10400 3900 10400
Wire Wire Line
	4300 10700 3900 10700
$Comp
L Device:C C5
U 1 1 5C4432BA
P 5050 10550
F 0 "C5" H 5165 10596 50  0000 L CNN
F 1 "100n" H 5165 10505 50  0000 L CNN
F 2 "Capacitor_THT:C_Rect_L7.0mm_W2.5mm_P5.00mm" H 5088 10400 50  0001 C CNN
F 3 "~" H 5050 10550 50  0001 C CNN
	1    5050 10550
	1    0    0    -1  
$EndComp
Wire Wire Line
	4650 10400 5050 10400
Wire Wire Line
	5050 10700 4650 10700
$Comp
L Connector:Screw_Terminal_01x02 J6
U 1 1 5C46FBC8
P 1450 9500
F 0 "J6" H 1370 9175 50  0000 C CNN
F 1 "Screw_Terminal_01x02" H 1370 9266 50  0000 C CNN
F 2 "TerminalBlock_MetzConnect:TerminalBlock_MetzConnect_Type101_RT01602HBWC_1x02_P5.08mm_Horizontal" H 1450 9500 50  0001 C CNN
F 3 "~" H 1450 9500 50  0001 C CNN
	1    1450 9500
	-1   0    0    -1  
$EndComp
Wire Wire Line
	1650 9600 1700 9600
Wire Wire Line
	1700 9600 1700 10400
Wire Wire Line
	1650 9500 2050 9500
Wire Wire Line
	2050 9500 2050 10700
Connection ~ 2050 10700
Wire Wire Line
	2050 10700 1700 10700
$Comp
L Interface_UART:MAX232 U7
U 1 1 5C49D685
P 12750 7500
F 0 "U7" H 13300 8550 50  0000 C CNN
F 1 "MAX232" H 13150 6400 50  0000 C CNN
F 2 "Package_DIP:DIP-16_W7.62mm_Socket_LongPads" H 12800 6450 50  0001 L CNN
F 3 "http://www.ti.com/lit/ds/symlink/max232.pdf" H 12750 7600 50  0001 C CNN
	1    12750 7500
	1    0    0    -1  
$EndComp
$Comp
L Device:C C7
U 1 1 5C49F82C
P 5400 10550
F 0 "C7" H 5515 10596 50  0000 L CNN
F 1 "100n" H 5515 10505 50  0000 L CNN
F 2 "Capacitor_THT:C_Rect_L7.0mm_W2.5mm_P5.00mm" H 5438 10400 50  0001 C CNN
F 3 "~" H 5400 10550 50  0001 C CNN
	1    5400 10550
	1    0    0    -1  
$EndComp
Wire Wire Line
	5400 10400 5050 10400
Connection ~ 5050 10400
Wire Wire Line
	5400 10700 5050 10700
Connection ~ 5050 10700
NoConn ~ 11950 8200
Wire Wire Line
	13550 8000 13550 8200
Text Label 2100 1900 0    50   ~ 0
RXD
Text Label 2100 2000 0    50   ~ 0
TXD
Wire Wire Line
	2300 1900 2100 1900
Wire Wire Line
	2300 2000 2100 2000
Text Label 11700 8000 0    50   ~ 0
RXD
Text Label 11700 7600 0    50   ~ 0
TXD
Wire Wire Line
	11950 7600 11700 7600
Wire Wire Line
	11950 8000 11700 8000
Wire Wire Line
	4600 2500 4650 2500
Wire Wire Line
	13800 6600 13550 6600
Wire Wire Line
	13800 6900 13550 6900
Wire Wire Line
	13650 7100 13550 7100
Wire Wire Line
	13650 7400 13550 7400
Wire Wire Line
	11950 6600 11700 6600
Wire Wire Line
	11700 6900 11950 6900
$Comp
L power:GND #PWR0114
U 1 1 5C64B6C0
P 12750 8800
F 0 "#PWR0114" H 12750 8550 50  0001 C CNN
F 1 "GND" H 12755 8627 50  0000 C CNN
F 2 "" H 12750 8800 50  0001 C CNN
F 3 "" H 12750 8800 50  0001 C CNN
	1    12750 8800
	1    0    0    -1  
$EndComp
$Comp
L power:VCC #PWR0115
U 1 1 5C64B747
P 12750 6200
F 0 "#PWR0115" H 12750 6050 50  0001 C CNN
F 1 "VCC" H 12767 6373 50  0000 C CNN
F 2 "" H 12750 6200 50  0001 C CNN
F 3 "" H 12750 6200 50  0001 C CNN
	1    12750 6200
	1    0    0    -1  
$EndComp
Wire Wire Line
	13550 7600 14200 7600
Wire Wire Line
	14200 7600 14200 7950
Wire Wire Line
	14200 7950 14700 7950
Wire Wire Line
	14700 7850 14350 7850
Wire Wire Line
	14350 7850 14350 8000
Wire Wire Line
	14350 8000 13550 8000
Connection ~ 13550 8000
$Comp
L power:GND #PWR0116
U 1 1 5C699E74
P 14600 8250
F 0 "#PWR0116" H 14600 8000 50  0001 C CNN
F 1 "GND" H 14605 8077 50  0000 C CNN
F 2 "" H 14600 8250 50  0001 C CNN
F 3 "" H 14600 8250 50  0001 C CNN
	1    14600 8250
	1    0    0    -1  
$EndComp
Wire Wire Line
	14700 8150 14600 8150
Wire Wire Line
	14600 8150 14600 8250
NoConn ~ 14700 7750
NoConn ~ 15200 7750
NoConn ~ 15200 7950
NoConn ~ 15200 8050
NoConn ~ 15200 8150
NoConn ~ 14700 8050
$Comp
L power:PWR_FLAG #FLG0101
U 1 1 5C751A5C
P 1900 10400
F 0 "#FLG0101" H 1900 10475 50  0001 C CNN
F 1 "PWR_FLAG" H 1900 10574 50  0000 C CNN
F 2 "" H 1900 10400 50  0001 C CNN
F 3 "~" H 1900 10400 50  0001 C CNN
	1    1900 10400
	1    0    0    -1  
$EndComp
Connection ~ 1900 10400
Wire Wire Line
	1900 10400 2200 10400
Wire Wire Line
	13950 7100 14200 7100
Wire Wire Line
	14200 6250 12750 6250
Wire Wire Line
	14200 6250 14200 7100
Wire Wire Line
	12750 6300 12750 6250
Connection ~ 12750 6250
Wire Wire Line
	12750 6250 12750 6200
Wire Wire Line
	13950 7400 14050 7400
Wire Wire Line
	14050 7400 14050 8750
Wire Wire Line
	14050 8750 12750 8750
Wire Wire Line
	12750 8700 12750 8750
Connection ~ 12750 8750
Wire Wire Line
	12750 8750 12750 8800
$Comp
L Connector_Generic:Conn_02x05_Odd_Even J7
U 1 1 5C7DC17F
P 14900 7950
F 0 "J7" H 14950 8367 50  0000 C CNN
F 1 "Conn_02x05_Odd_Even" H 14950 8276 50  0000 C CNN
F 2 "Connector_PinHeader_2.54mm:PinHeader_2x05_P2.54mm_Vertical" H 14900 7950 50  0001 C CNN
F 3 "~" H 14900 7950 50  0001 C CNN
	1    14900 7950
	1    0    0    -1  
$EndComp
Text Label 1300 10400 0    50   ~ 0
12B
Text Label 2800 10400 0    50   ~ 0
5B
$Comp
L 74xx:74LS14 U4
U 1 1 5C2F60A5
P 7050 5850
F 0 "U4" V 7004 6030 50  0000 L CNN
F 1 "74LS14" V 7095 6030 50  0000 L CNN
F 2 "Package_DIP:DIP-14_W7.62mm_Socket_LongPads" H 7050 5850 50  0001 C CNN
F 3 "http://www.ti.com/lit/gpn/sn74LS14" H 7050 5850 50  0001 C CNN
	1    7050 5850
	0    1    1    0   
$EndComp
$Comp
L 74xx:74LS14 U4
U 6 1 5C2F6841
P 7050 6550
F 0 "U4" V 7004 6730 50  0000 L CNN
F 1 "74LS14" V 7095 6730 50  0000 L CNN
F 2 "Package_DIP:DIP-14_W7.62mm_Socket_LongPads" H 7050 6550 50  0001 C CNN
F 3 "http://www.ti.com/lit/gpn/sn74LS14" H 7050 6550 50  0001 C CNN
	6    7050 6550
	0    1    1    0   
$EndComp
$Comp
L 74xx:74LS14 U4
U 2 1 5C2F6F69
P 6500 5850
F 0 "U4" V 6454 6030 50  0000 L CNN
F 1 "74LS14" V 6545 6030 50  0000 L CNN
F 2 "Package_DIP:DIP-14_W7.62mm_Socket_LongPads" H 6500 5850 50  0001 C CNN
F 3 "http://www.ti.com/lit/gpn/sn74LS14" H 6500 5850 50  0001 C CNN
	2    6500 5850
	0    1    1    0   
$EndComp
$Comp
L 74xx:74LS14 U4
U 5 1 5C2F7030
P 6500 6550
F 0 "U4" V 6454 6730 50  0000 L CNN
F 1 "74LS14" V 6545 6730 50  0000 L CNN
F 2 "Package_DIP:DIP-14_W7.62mm_Socket_LongPads" H 6500 6550 50  0001 C CNN
F 3 "http://www.ti.com/lit/gpn/sn74LS14" H 6500 6550 50  0001 C CNN
	5    6500 6550
	0    1    1    0   
$EndComp
$Comp
L 74xx:74LS14 U4
U 3 1 5C2F70EA
P 5950 5850
F 0 "U4" V 5904 6030 50  0000 L CNN
F 1 "74LS14" V 5995 6030 50  0000 L CNN
F 2 "Package_DIP:DIP-14_W7.62mm_Socket_LongPads" H 5950 5850 50  0001 C CNN
F 3 "http://www.ti.com/lit/gpn/sn74LS14" H 5950 5850 50  0001 C CNN
	3    5950 5850
	0    1    1    0   
$EndComp
$Comp
L 74xx:74LS14 U4
U 4 1 5C2F7203
P 5950 6550
F 0 "U4" V 5904 6730 50  0000 L CNN
F 1 "74LS14" V 5995 6730 50  0000 L CNN
F 2 "Package_DIP:DIP-14_W7.62mm_Socket_LongPads" H 5950 6550 50  0001 C CNN
F 3 "http://www.ti.com/lit/gpn/sn74LS14" H 5950 6550 50  0001 C CNN
	4    5950 6550
	0    1    1    0   
$EndComp
$Comp
L 74xx:74LS14 U4
U 7 1 5C2F72CD
P 6300 10500
F 0 "U4" H 6530 10546 50  0000 L CNN
F 1 "74LS14" H 6530 10455 50  0000 L CNN
F 2 "Package_DIP:DIP-14_W7.62mm_Socket_LongPads" H 6300 10500 50  0001 C CNN
F 3 "http://www.ti.com/lit/gpn/sn74LS14" H 6300 10500 50  0001 C CNN
	7    6300 10500
	1    0    0    -1  
$EndComp
Wire Wire Line
	6100 5050 7050 5050
Wire Wire Line
	7050 5050 7050 5550
Connection ~ 7050 5050
Wire Wire Line
	7050 5050 7150 5050
Wire Wire Line
	7050 6150 7050 6250
Wire Wire Line
	7050 6850 7050 6950
Wire Wire Line
	6500 6150 6500 6250
Wire Wire Line
	6500 6850 6500 6950
Wire Wire Line
	5950 6150 5950 6200
Wire Wire Line
	5950 6200 5450 6200
Wire Wire Line
	5450 6200 5450 6950
Connection ~ 5950 6200
Wire Wire Line
	5950 6200 5950 6250
Wire Wire Line
	5950 6850 5950 6950
Wire Wire Line
	6100 4650 6500 4650
Wire Wire Line
	6500 5550 6500 4650
Connection ~ 6500 4650
Wire Wire Line
	6500 4650 6750 4650
Wire Wire Line
	6350 5250 5950 5250
Wire Wire Line
	5950 5250 5950 5550
Wire Wire Line
	5000 7900 7050 7900
Wire Wire Line
	7050 7900 7050 7250
Wire Wire Line
	5000 7800 6500 7800
Wire Wire Line
	6500 7800 6500 7250
Wire Wire Line
	5000 7700 5450 7700
Wire Wire Line
	5450 7700 5450 7250
Wire Wire Line
	5000 7600 5950 7600
Wire Wire Line
	5950 7600 5950 7250
$Comp
L Device:R_Network04 RN3
U 1 1 5C6563C1
P 4800 7700
F 0 "RN3" V 5117 7700 50  0000 C CNN
F 1 "4x470" V 5026 7700 50  0000 C CNN
F 2 "Resistor_THT:R_Array_SIP5" V 5075 7700 50  0001 C CNN
F 3 "http://www.vishay.com/docs/31509/csc.pdf" H 4800 7700 50  0001 C CNN
	1    4800 7700
	0    -1   -1   0   
$EndComp
$Comp
L Device:C C4
U 1 1 5C67190E
P 4650 10550
F 0 "C4" H 4765 10596 50  0000 L CNN
F 1 "100n" H 4765 10505 50  0000 L CNN
F 2 "Capacitor_THT:C_Rect_L7.0mm_W2.5mm_P5.00mm" H 4688 10400 50  0001 C CNN
F 3 "~" H 4650 10550 50  0001 C CNN
	1    4650 10550
	1    0    0    -1  
$EndComp
Wire Wire Line
	4650 10400 4300 10400
Connection ~ 4650 10400
Connection ~ 4300 10400
Wire Wire Line
	4650 10700 4300 10700
Connection ~ 4650 10700
Connection ~ 4300 10700
$Comp
L power:VCC #PWR0104
U 1 1 5C6A4210
P 6300 10000
F 0 "#PWR0104" H 6300 9850 50  0001 C CNN
F 1 "VCC" H 6317 10173 50  0000 C CNN
F 2 "" H 6300 10000 50  0001 C CNN
F 3 "" H 6300 10000 50  0001 C CNN
	1    6300 10000
	1    0    0    -1  
$EndComp
$Comp
L power:GND #PWR0117
U 1 1 5C6A42A5
P 6300 11000
F 0 "#PWR0117" H 6300 10750 50  0001 C CNN
F 1 "GND" H 6305 10827 50  0000 C CNN
F 2 "" H 6300 11000 50  0001 C CNN
F 3 "" H 6300 11000 50  0001 C CNN
	1    6300 11000
	1    0    0    -1  
$EndComp
$Comp
L Connector:Conn_01x03_Male J8
U 1 1 5C6A7793
P 3500 3750
F 0 "J8" V 3653 3563 50  0000 R CNN
F 1 "Conn_01x03_Male" V 3562 3563 50  0000 R CNN
F 2 "Connector_PinHeader_2.54mm:PinHeader_1x03_P2.54mm_Vertical" H 3500 3750 50  0001 C CNN
F 3 "~" H 3500 3750 50  0001 C CNN
	1    3500 3750
	0    -1   -1   0   
$EndComp
Wire Wire Line
	3400 3400 3400 3500
Wire Wire Line
	3600 3400 3600 3550
Wire Wire Line
	3500 3550 3500 3500
Wire Wire Line
	3500 3500 4650 3500
Wire Wire Line
	4600 3000 5100 3000
Wire Wire Line
	4650 2500 4650 3500
Wire Wire Line
	11950 7800 11500 7800
Wire Wire Line
	11500 7800 11500 8750
Wire Wire Line
	11500 8750 12750 8750
NoConn ~ 15200 7850
NoConn ~ 13550 7800
$Comp
L power:PWR_FLAG #FLG0102
U 1 1 5C3703F5
P 2900 3450
F 0 "#FLG0102" H 2900 3525 50  0001 C CNN
F 1 "PWR_FLAG" H 2900 3624 50  0000 C CNN
F 2 "" H 2900 3450 50  0001 C CNN
F 3 "~" H 2900 3450 50  0001 C CNN
	1    2900 3450
	1    0    0    -1  
$EndComp
Wire Wire Line
	2900 3450 2900 3500
Wire Wire Line
	2900 3500 3400 3500
Connection ~ 3400 3500
Wire Wire Line
	3400 3500 3400 3550
$Comp
L Device:CP C71
U 1 1 5C30DE3D
P 11700 6750
F 0 "C71" H 11818 6796 50  0000 L CNN
F 1 "1uF" H 11818 6705 50  0000 L CNN
F 2 "Capacitor_THT:CP_Radial_D5.0mm_P2.50mm" H 11738 6600 50  0001 C CNN
F 3 "~" H 11700 6750 50  0001 C CNN
	1    11700 6750
	1    0    0    -1  
$EndComp
$Comp
L Device:CP C72
U 1 1 5C3112DE
P 13800 6750
F 0 "C72" H 13918 6796 50  0000 L CNN
F 1 "1uF" H 13918 6705 50  0000 L CNN
F 2 "Capacitor_THT:CP_Radial_D5.0mm_P2.50mm" H 13838 6600 50  0001 C CNN
F 3 "~" H 13800 6750 50  0001 C CNN
	1    13800 6750
	1    0    0    -1  
$EndComp
$Comp
L Device:CP C73
U 1 1 5C311392
P 13800 7100
F 0 "C73" V 13850 6950 50  0000 C CNN
F 1 "1uF" V 13750 6950 50  0000 C CNN
F 2 "Capacitor_THT:CP_Radial_D5.0mm_P2.50mm" H 13838 6950 50  0001 C CNN
F 3 "~" H 13800 7100 50  0001 C CNN
	1    13800 7100
	0    -1   -1   0   
$EndComp
$Comp
L Device:CP C74
U 1 1 5C311522
P 13800 7400
F 0 "C74" V 13750 7600 50  0000 C CNN
F 1 "1uF" V 13850 7550 50  0000 C CNN
F 2 "Capacitor_THT:CP_Radial_D5.0mm_P2.50mm" H 13838 7250 50  0001 C CNN
F 3 "~" H 13800 7400 50  0001 C CNN
	1    13800 7400
	0    1    1    0   
$EndComp
Wire Bus Line
	1700 1050 6000 1050
Wire Wire Line
	1000 2300 2300 2300
Wire Bus Line
	1700 1050 1700 3000
Wire Bus Line
	5200 1150 5200 3000
Wire Bus Line
	6000 1050 6000 4950
$EndSCHEMATC
